["h1",
 ".navigation",
 "h2",
 ".logo",
 "h3",
 ".blank",
 "h4",
 ".about",
 "h5",
 ".heading",
 "h6",
 ".subheading",
 "h7",
 ".pitch",
 "h8",
 ".video",
 "h9",
 ".thermometer",
 "h10",
 ".order",
 "h11",
 ".social",
 "h12",
 ".section1",
 "h13",	
 ".section2",
 "h14",	
 ".faq",
 "h15",	
 ".footer"
]

